DoorLockSystem/src/DoorLockSystem/simulation/qsim/DoorLockSystem.msim.vcd
$comment
	File created using the following command:
		vcd file DoorLockSystem.msim.vcd -direction
$end
$date
	Mon Jan 30 22:51:04 2023
$end
$version
	ModelSim Version 2020.1
$end
$timescale
	1ps
$end

$scope module doorlocksystem_vhd_vec_tst $end
$var wire 1 ! A $end
$var wire 1 " Alarm $end
$var wire 1 # B $end
$var wire 1 $ C $end
$var wire 1 % D $end
$var wire 1 & DoorFive $end
$var wire 1 ' DoorFour $end
$var wire 1 ( DoorOne $end
$var wire 1 ) DoorSix $end
$var wire 1 * DoorThree $end
$var wire 1 + DoorTwo $end
$var wire 1 , E $end
$var wire 1 - F $end

$scope module i1 $end
$var wire 1 . gnd $end
$var wire 1 / vcc $end
$var wire 1 0 unknown $end
$var wire 1 1 devoe $end
$var wire 1 2 devclrn $end
$var wire 1 3 devpor $end
$var wire 1 4 ww_devoe $end
$var wire 1 5 ww_devclrn $end
$var wire 1 6 ww_devpor $end
$var wire 1 7 ww_A $end
$var wire 1 8 ww_B $end
$var wire 1 9 ww_C $end
$var wire 1 : ww_D $end
$var wire 1 ; ww_E $end
$var wire 1 < ww_F $end
$var wire 1 = ww_DoorOne $end
$var wire 1 > ww_DoorTwo $end
$var wire 1 ? ww_DoorThree $end
$var wire 1 @ ww_DoorFour $end
$var wire 1 A ww_DoorFive $end
$var wire 1 B ww_DoorSix $end
$var wire 1 C ww_Alarm $end
$var wire 1 D \~QUARTUS_CREATED_GND~I_combout\ $end
$var wire 1 E \E~input_o\ $end
$var wire 1 F \A~input_o\ $end
$var wire 1 G \B~input_o\ $end
$var wire 1 H \C~input_o\ $end
$var wire 1 I \DoorOne~0_combout\ $end
$var wire 1 J \F~input_o\ $end
$var wire 1 K \DoorTwo~0_combout\ $end
$var wire 1 L \D~input_o\ $end
$var wire 1 M \DoorThree~0_combout\ $end
$var wire 1 N \DoorFour~0_combout\ $end
$var wire 1 O \DoorFive~0_combout\ $end
$var wire 1 P \DoorSix~0_combout\ $end
$var wire 1 Q \Alarm~0_combout\ $end
$var wire 1 R \ALT_INV_A~input_o\ $end
$var wire 1 S \ALT_INV_C~input_o\ $end
$var wire 1 T \ALT_INV_B~input_o\ $end
$var wire 1 U \ALT_INV_E~input_o\ $end
$var wire 1 V \ALT_INV_F~input_o\ $end
$var wire 1 W \ALT_INV_D~input_o\ $end
$upscope $end
$upscope $end
$enddefinitions $end
#0
$dumpvars
0!
0"
0#
0$
0%
0&
0'
0(
0)
0*
0+
0,
0-
0.
1/
x0
11
12
13
14
15
16
07
08
09
0:
0;
0<
0=
0>
0?
0@
0A
0B
0C
xD
0E
0F
0G
0H
0I
0J
0K
0L
0M
0N
0O
0P
0Q
1R
1S
1T
1U
1V
1W
$end
#20000
1!
1#
1$
1-
17
18
19
1<
1J
1H
1G
1F
0R
0T
0S
0V
1Q
1C
1"
#30000
0!
1%
07
1:
1L
0F
1R
0W
1M
0Q
0C
1?
0"
1*
#40000
0#
0$
1,
08
09
1;
1E
0H
0G
1T
1S
0U
0M
0?
0*
#50000
1#
1$
1!
0%
0-
18
19
17
0:
0<
0J
0L
1F
1H
1G
0T
0S
0R
1W
1V
1Q
1C
1"
#60000
0#
0$
0!
0,
08
09
07
0;
0E
0F
0H
0G
1T
1S
1R
1U
0Q
0C
0"
#70000
1%
1:
1L
0W
#80000
0%
1$
1!
0:
19
17
1F
1H
0L
1W
0S
0R
#90000
1%
0$
1#
1,
1-
1:
09
18
1;
1<
1J
1E
1G
0H
1L
0W
1S
0T
0U
0V
1P
1B
1)
#100000
0%
1$
0#
0-
0:
19
08
0<
0J
0G
1H
0L
1W
0S
1T
1V
1O
0P
0B
1A
0)
1&
#110000
0$
1#
1-
0,
0!
09
18
1<
0;
07
0F
0E
1J
1G
0H
1S
0T
0V
1U
1R
1K
0O
0A
1>
0&
1+
#120000
1$
0-
1%
19
0<
1:
1L
0J
1H
0S
1V
0W
0K
1M
1?
0>
1*
0+
#130000
0#
1,
1!
08
1;
17
1F
1E
0G
1T
0U
0R
0M
0?
0*
#140000
1#
0$
18
09
0H
1G
0T
1S
1P
1B
1)
#150000
0#
1$
0!
1-
08
19
07
1<
1J
0F
1H
0G
1T
0S
1R
0V
1I
0P
0B
1=
0)
1(
#160000
0$
09
0H
1S
0I
0=
0(
#170000
1#
1!
0-
0,
0%
18
17
0<
0;
0:
0L
0E
0J
1F
1G
0T
0R
1V
1U
1W
#180000
1,
1%
1$
1;
1:
19
1H
1L
1E
0U
0W
0S
1Q
1C
1"
#190000
0%
0#
0!
0:
08
07
0F
0G
0L
1W
1T
1R
1I
0Q
0C
1=
0"
1(
#200000
0$
1-
09
1<
1J
0H
1S
0V
0I
0=
0(
#210000
1#
1!
18
17
1F
1G
0T
0R
#220000
0#
0,
08
0;
0E
0G
1T
1U
#230000
1#
0!
0-
18
07
0<
0J
0F
1G
0T
1R
1V
#240000
1!
17
1F
0R
#250000
0!
1%
07
1:
1L
0F
1R
0W
#260000
1!
1,
17
1;
1E
1F
0R
0U
1P
1B
1)
#270000
0,
0%
0;
0:
0L
0E
1U
1W
0P
0B
0)
#280000
1,
0!
1-
1$
1;
07
1<
19
1H
1J
0F
1E
0U
1R
0V
0S
1M
1?
1*
#290000
1!
0-
0$
1%
17
0<
09
1:
1L
0H
0J
1F
0R
1V
1S
0W
0M
1P
1B
0?
1)
0*
#310000
0!
1$
0%
0#
07
19
0:
08
0G
0L
1H
0F
1R
0S
1W
1T
1I
0P
0B
1=
0)
1(
#320000
0$
1%
09
1:
1L
0H
1S
0W
0I
0=
0(
#330000
1!
1-
17
1<
1J
1F
0R
0V
1N
1@
1'
#340000
1$
0%
1#
0,
19
0:
18
0;
0E
1G
0L
1H
0S
1W
0T
1U
0N
1Q
1C
0@
1"
0'
#350000
1%
1,
0!
0-
1:
1;
07
0<
0J
0F
1E
1L
0W
0U
1R
1V
0Q
1M
1?
0C
1*
0"
#360000
1!
0#
17
08
0G
1F
0R
1T
0M
0?
0*
#370000
1-
0$
1<
09
0H
1J
0V
1S
1N
1@
1'
#380000
1$
0!
19
07
0F
1H
0S
1R
1I
0N
0@
1=
0'
1(
#400000
0$
1!
1#
0%
0,
09
17
18
0:
0;
0E
0L
1G
1F
0H
1S
0R
0T
1W
1U
0I
0=
0(
#410000
1$
0!
0#
19
07
08
0G
0F
1H
0S
1R
1T
#420000
1!
1#
1%
1,
17
18
1:
1;
1E
1L
1G
1F
0R
0T
0W
0U
1Q
1C
1"
#430000
0%
0,
0:
0;
0E
0L
1W
1U
#440000
1%
0!
0#
0$
0-
1:
07
08
09
0<
0J
0H
0G
0F
1L
0W
1R
1T
1S
1V
0Q
0C
0"
#450000
1#
1-
18
1<
1J
1G
0T
0V
1K
1>
1+
#460000
0#
1$
08
19
1H
0G
1T
0S
0K
0>
0+
#470000
0-
0%
1!
0<
0:
17
1F
0L
0J
1V
1W
0R
#480000
1-
1%
1#
0$
1<
1:
18
09
0H
1G
1L
1J
0V
0W
0T
1S
1P
1B
1)
#490000
0#
1,
08
1;
1E
0G
1T
0U
1N
0P
0B
1@
0)
1'
#500000
0,
0-
0%
0!
0;
0<
0:
07
0F
0L
0J
0E
1U
1V
1W
1R
0N
0@
0'
#510000
1,
1-
1!
1#
1;
1<
17
18
1G
1F
1J
1E
0U
0V
0R
0T
#520000
0,
0;
0E
1U
#530000
1,
0!
1;
07
0F
1E
0U
1R
1K
1>
1+
#540000
1!
0-
0#
1%
17
0<
08
1:
1L
0G
0J
1F
0R
1V
1T
0W
0K
1N
1@
0>
1'
0+
#550000
0!
1#
0%
0,
1$
07
18
0:
0;
19
1H
0E
0L
1G
0F
1R
0T
1W
1U
0S
0N
0@
0'
#560000
1!
0$
1-
17
09
1<
1J
0H
1F
0R
1S
0V
#570000
0!
0#
1,
07
08
1;
1E
0G
0F
1R
1T
0U
#580000
1#
1%
18
1:
1L
1G
0T
0W
1K
1>
1+
#590000
0#
0,
08
0;
0E
0G
1T
1U
0K
0>
0+
#600000
1,
1;
1E
0U
#610000
1#
0%
1!
1$
18
0:
17
19
1H
1F
0L
1G
0T
1W
0R
0S
1Q
1C
1"
#620000
1%
0$
0,
0-
1:
09
0;
0<
0J
0E
0H
1L
0W
1S
1U
1V
0Q
1P
1B
0C
1)
0"
#630000
0%
1,
0#
0:
1;
08
0G
1E
0L
1W
0U
1T
0P
0B
0)
#640000
1%
0,
1#
1$
0!
1:
0;
18
19
07
0F
1H
1G
0E
1L
0W
1U
0T
0S
1R
1M
1?
1*
#650000
0$
09
0H
1S
0M
0?
0*
#660000
0%
1,
0#
1!
1-
0:
1;
08
17
1<
1J
1F
0G
1E
0L
1W
0U
1T
0R
0V
#670000
0,
1#
0!
0-
0;
18
07
0<
0J
0F
1G
0E
1U
0T
1R
1V
#680000
1,
1!
1-
1%
1$
1;
17
1<
1:
19
1H
1L
1J
1F
1E
0U
0R
0V
0W
0S
1Q
1C
1"
#690000
0,
0!
0#
0;
07
08
0G
0F
0E
1U
1R
1T
0Q
0C
0"
#700000
1,
1#
1;
18
1G
1E
0U
0T
1M
1?
1*
#710000
0,
1!
0%
0;
17
0:
0L
1F
0E
1U
0R
1W
1Q
0M
0?
1C
0*
1"
#720000
1,
0!
0$
1;
07
09
0H
0F
1E
0U
1R
1S
1K
0Q
0C
1>
0"
1+
#730000
0,
1$
0#
0-
0;
19
08
0<
0J
0G
1H
0E
1U
0S
1T
1V
0K
0>
0+
#740000
1,
1#
1!
1;
18
17
1F
1G
1E
0U
0T
0R
1Q
1C
1"
#750000
0,
1-
0;
1<
1J
0E
1U
0V
#760000
1,
0!
0$
1;
07
09
0H
0F
1E
0U
1R
1S
1K
0Q
0C
1>
0"
1+
#770000
0-
1%
0<
1:
1L
0J
1V
0W
0K
0>
0+
#780000
0,
1!
1$
0;
17
19
1H
1F
0E
1U
0R
0S
1Q
1C
1"
#790000
0!
0%
0#
07
0:
08
0G
0L
0F
1R
1W
1T
0Q
0C
0"
#800000
1#
18
1G
0T
#810000
0#
1,
08
1;
1E
0G
1T
0U
1I
1=
1(
#820000
1#
18
1G
0T
0I
1M
1?
0=
1*
0(
#830000
1!
0$
17
09
0H
1F
0R
1S
0M
0?
0*
#840000
1$
1%
1-
19
1:
1<
1J
1L
1H
0S
0W
0V
1Q
1C
1"
#850000
0$
0%
0-
0#
09
0:
0<
08
0G
0J
0L
0H
1S
1W
1V
1T
0Q
0C
0"
#860000
1$
1%
1#
19
1:
18
1G
1L
1H
0S
0W
0T
1Q
1C
1"
#870000
0$
0%
09
0:
0L
0H
1S
1W
0Q
0C
0"
#880000
1$
1%
19
1:
1L
1H
0S
0W
1Q
1C
1"
#890000
0!
0,
07
0;
0E
0F
1R
1U
1M
0Q
0C
1?
0"
1*
#900000
1!
1,
0$
0%
0#
1-
17
1;
09
0:
08
1<
1J
0G
0L
0H
1E
1F
0R
0U
1S
1W
1T
0V
0M
0?
0*
#910000
1$
0-
19
0<
0J
1H
0S
1V
1O
1A
1&
#920000
1-
0!
0,
1<
07
0;
0E
0F
1J
0V
1R
1U
0O
0A
0&
#930000
0-
1,
0$
0<
1;
09
0H
1E
0J
1V
0U
1S
#940000
1-
0,
1%
1<
0;
1:
1L
0E
1J
0V
1U
0W
#950000
1,
0%
1$
1!
1;
0:
19
17
1F
1H
0L
1E
0U
1W
0S
0R
1O
1A
1&
#960000
1%
1:
1L
0W
0O
0A
0&
#970000
0,
0$
0;
09
0H
0E
1U
1S
#980000
1,
0!
1;
07
0F
1E
0U
1R
#990000
0,
0%
0-
0;
0:
0<
0J
0L
0E
1U
1W
1V
