1_/src/Structural/simulation/qsim/Structural.msim.vcd
$comment
	File created using the following command:
		vcd file Structural.msim.vcd -direction
$end
$date
	Mon Jan 30 22:25:51 2023
$end
$version
	ModelSim Version 2020.1
$end
$timescale
	1ps
$end

$scope module structural_vhd_vec_tst $end
$var wire 1 ! A $end
$var wire 1 " B $end
$var wire 1 # D $end
$var wire 1 $ E $end

$scope module i1 $end
$var wire 1 % gnd $end
$var wire 1 & vcc $end
$var wire 1 ' unknown $end
$var wire 1 ( devoe $end
$var wire 1 ) devclrn $end
$var wire 1 * devpor $end
$var wire 1 + ww_devoe $end
$var wire 1 , ww_devclrn $end
$var wire 1 - ww_devpor $end
$var wire 1 . ww_A $end
$var wire 1 / ww_B $end
$var wire 1 0 ww_D $end
$var wire 1 1 ww_E $end
$var wire 1 2 \~QUARTUS_CREATED_GND~I_combout\ $end
$var wire 1 3 \A~input_o\ $end
$var wire 1 4 \B~input_o\ $end
$var wire 1 5 \D~input_o\ $end
$var wire 1 6 \Component2|E~combout\ $end
$var wire 1 7 \ALT_INV_B~input_o\ $end
$var wire 1 8 \ALT_INV_A~input_o\ $end
$var wire 1 9 \ALT_INV_D~input_o\ $end
$upscope $end
$upscope $end
$enddefinitions $end
#0
$dumpvars
0!
0"
0#
0$
0%
1&
x'
1(
1)
1*
1+
1,
1-
0.
0/
00
01
x2
03
04
05
06
17
18
19
$end
#25000
1#
10
15
09
16
11
1$
#50000
0#
1"
00
1/
14
05
19
07
06
01
0$
#75000
1#
10
15
09
16
11
1$
#100000
0#
0"
1!
00
0/
1.
13
04
05
19
17
08
06
01
0$
#125000
1#
10
15
09
16
11
1$
#150000
0#
1"
00
1/
14
05
19
07
#175000
1#
10
15
09
#200000
0#
0"
0!
00
0/
0.
03
04
05
19
17
18
06
01
0$
